main.c:64:6:HAL_ADC_ConCpltCallback	16	static
main.c:74:5:main	8	static
main.c:119:6:SystemClock_Config	88	static
main.c:163:13:MX_ADC1_Init	24	static
main.c:211:13:MX_DMA_Init	16	static
main.c:229:13:MX_GPIO_Init	16	static
main.c:246:6:Error_Handler	4	static
